{
  "return": true,
  "message": "Ok",
  "data": {
    "next_page": "?pageLimit=10&page=2",
    "prev_page": "?pageLimit=10&page=1",
    "page": 1,
    "showing": 10,
    "total_pages": 191,
    "total_count": 1909,
    "result": [
      {
        "_id": "67358e8dfd1372fc4a6d61d7",
        "product_info": {
          "product_id": "67358e8dfd1372fc4a6d61d5",
          "product_name_fa": "موس پروکسی مدل 301 مجموعه 2 عددی",
          "scrape_url": "https://www.digikala.com/product/dkp-9567837",
          "is_available": false
        },
        "brand_info": {
          "brand_name": "proxi",
          "brand_name_fa": "پروکسی"
        },
        "mall_info": {
          "mall_id": "67358d34fd1372fc4a6d61ac",
          "mall_name": "digikala",
          "mall_name_fa": "دیجی‌کالا"
        },
        "media_info": {
          "primary_image": "https://dkstatics-public.digikala.com/digikala-products/234ad1f218d6b59d687bd3285a282e82520a5b2e_1664703076.jpg?x-oss-process=image/resize,m_lfit,h_800,w_800/quality,q_90"
        }
      },
      {
        "_id": "67358e90fd1372fc4a6d61dc",
        "product_info": {
          "product_id": "67358e90fd1372fc4a6d61da",
          "product_name_fa": "کرم پودر اشتون شماره GF40 حجم 30 میلی لیتر",
          "price_stat": {
            "avg": 6930000,
            "variance": 0,
            "min": 6930000,
            "max": 6930000
          },
          "scrape_url": "https://www.digikala.com/product/dkp-17069793",
          "is_available": true
        },
        "brand_info": {
          "brand_name": "ashton",
          "brand_name_fa": "اشتون"
        },
        "mall_info": {
          "mall_id": "67358d34fd1372fc4a6d61ac",
          "mall_name": "digikala",
          "mall_name_fa": "دیجی‌کالا"
        },
        "media_info": {
          "primary_image": "https://dkstatics-public.digikala.com/digikala-products/688309c8183298da2ba0ed0884db581665e85646_1729289818.jpg?x-oss-process=image/resize,m_lfit,h_800,w_800/quality,q_90"
        }
      },
      {
        "_id": "67358e80fd1372fc4a6d61c5",
        "product_info": {
          "product_id": "67358e80fd1372fc4a6d61c3",
          "product_name_fa": "کرم پودر لورینت مدل Visible Lift شماره F4",
          "price_stat": {
            "avg": 1548000,
            "variance": 0,
            "min": 1548000,
            "max": 1548000
          },
          "scrape_url": "https://www.digikala.com/product/dkp-676111",
          "is_available": true
        },
        "brand_info": {
          "brand_name": "miscellaneous",
          "brand_name_fa": "متفرقه"
        },
        "mall_info": {
          "mall_id": "67358d34fd1372fc4a6d61ac",
          "mall_name": "digikala",
          "mall_name_fa": "دیجی‌کالا"
        },
        "media_info": {
          "primary_image": "https://dkstatics-public.digikala.com/digikala-products/2927602.jpg?x-oss-process=image/resize,m_lfit,h_800,w_800/quality,q_90"
        }
      },
      {
        "_id": "67358e8afd1372fc4a6d61d2",
        "product_info": {
          "product_id": "67358e8afd1372fc4a6d61d0",
          "product_name_fa": "کرم پودر پلادیس شماره 102 حجم 40 میلی لیتر",
          "scrape_url": "https://www.digikala.com/product/dkp-1428655",
          "is_available": false
        },
        "brand_info": {
          "brand_name": "pars peladis",
          "brand_name_fa": "پارس پلادیس"
        },
        "mall_info": {
          "mall_id": "67358d34fd1372fc4a6d61ac",
          "mall_name": "digikala",
          "mall_name_fa": "دیجی‌کالا"
        },
        "media_info": {
          "primary_image": "https://dkstatics-public.digikala.com/digikala-products/f6966a45363c3f08668a7d750553a002ea7bdbec_1701036540.jpg?x-oss-process=image/resize,m_lfit,h_800,w_800/quality,q_90"
        }
      },
      {
        "_id": "67358e83fd1372fc4a6d61c9",
        "product_info": {
          "product_id": "67358e83fd1372fc4a6d61c7",
          "product_name_fa": "کرم فشرده مروان خیر شماره 19",
          "scrape_url": "https://www.digikala.com/product/dkp-4565500",
          "is_available": false
        },
        "brand_info": {
          "brand_name": "miscellaneous",
          "brand_name_fa": "متفرقه"
        },
        "mall_info": {
          "mall_id": "67358d34fd1372fc4a6d61ac",
          "mall_name": "digikala",
          "mall_name_fa": "دیجی‌کالا"
        },
        "media_info": {
          "primary_image": "https://dkstatics-public.digikala.com/digikala-products/51fe0cbc249976a33250ac64ad92c2c7a854e154_1614419060.jpg?x-oss-process=image/resize,m_lfit,h_800,w_800/quality,q_90"
        }
      },
      {
        "_id": "67358e7dfd1372fc4a6d61c0",
        "product_info": {
          "product_id": "67358e7dfd1372fc4a6d61be",
          "product_name_fa": "موس فلر مدل Silk Foundation شماره 602",
          "price_stat": {
            "avg": 5924000,
            "variance": 0,
            "min": 5924000,
            "max": 5924000
          },
          "scrape_url": "https://www.digikala.com/product/dkp-5376745",
          "is_available": true
        },
        "brand_info": {
          "brand_name": "feler",
          "brand_name_fa": "فلر"
        },
        "mall_info": {
          "mall_id": "67358d34fd1372fc4a6d61ac",
          "mall_name": "digikala",
          "mall_name_fa": "دیجی‌کالا"
        },
        "media_info": {
          "primary_image": "https://dkstatics-public.digikala.com/digikala-products/bdb4801272b66190006703b3c29d26d17a21e90c_1623143499.jpg?x-oss-process=image/resize,m_lfit,h_800,w_800/quality,q_90"
        }
      },
      {
        "_id": "67358e77fd1372fc4a6d61b6",
        "product_info": {
          "product_id": "67358e77fd1372fc4a6d61b4",
          "product_name_fa": "کرم پودر استودیو میکاپ مدل Perfecting Finish شماره 05 حجم 30 میلی لیتر",
          "price_stat": {
            "avg": 11960000,
            "variance": 0,
            "min": 11960000,
            "max": 11960000
          },
          "scrape_url": "https://www.digikala.com/product/dkp-1167547",
          "is_available": true
        },
        "brand_info": {
          "brand_name": "studiomakeup",
          "brand_name_fa": "استودیو میکاپ"
        },
        "mall_info": {
          "mall_id": "67358d34fd1372fc4a6d61ac",
          "mall_name": "digikala",
          "mall_name_fa": "دیجی‌کالا"
        },
        "media_info": {
          "primary_image": "https://dkstatics-public.digikala.com/digikala-products/16e0656af964d57ae8786e0f2fb9f170a6c95c8f_1701037255.jpg?x-oss-process=image/resize,m_lfit,h_800,w_800/quality,q_90"
        }
      },
      {
        "_id": "67358d34fd1372fc4a6d61b0",
        "product_info": {
          "product_id": "67358d34fd1372fc4a6d61ae",
          "product_name_fa": "کرم پودر میستار شماره 102 حجم 40 میلی لیتر",
          "price_stat": {
            "avg": 1949500,
            "variance": 0,
            "min": 1949500,
            "max": 1949500
          },
          "scrape_url": "https://www.digikala.com/product/dkp-7625033",
          "is_available": true
        },
        "brand_info": {
          "brand_name": "misstar",
          "brand_name_fa": "میستار"
        },
        "mall_info": {
          "mall_id": "67358d34fd1372fc4a6d61ac",
          "mall_name": "digikala",
          "mall_name_fa": "دیجی‌کالا"
        },
        "media_info": {
          "primary_image": "https://dkstatics-public.digikala.com/digikala-products/27241cde79df2466bfbecddf7b6419e0d2456b1c_1642861080.jpg?x-oss-process=image/resize,m_lfit,h_800,w_800/quality,q_90"
        }
      },
      {
        "_id": "67358e7afd1372fc4a6d61bb",
        "product_info": {
          "product_id": "67358e7afd1372fc4a6d61b9",
          "product_name_fa": "کرم پودر فرانسیس مدل Ultra HD شماره 505 حجم 30 میلی لیتر",
          "scrape_url": "https://www.digikala.com/product/dkp-14508701",
          "is_available": false
        },
        "brand_info": {
          "brand_name": "francis",
          "brand_name_fa": "فرانسیس"
        },
        "mall_info": {
          "mall_id": "67358d34fd1372fc4a6d61ac",
          "mall_name": "digikala",
          "mall_name_fa": "دیجی‌کالا"
        },
        "media_info": {
          "primary_image": "https://dkstatics-public.digikala.com/digikala-products/6ca00640cd503224f4faf37b29775bdf7988d0db_1708423735.jpg?x-oss-process=image/resize,m_lfit,h_800,w_800/quality,q_90"
        }
      },
      {
        "_id": "67358e87fd1372fc4a6d61ce",
        "product_info": {
          "product_id": "67358e87fd1372fc4a6d61cc",
          "product_name_fa": "کرم پودر پارس پلادیس شماره 102 حجم 40 میلی لیتر",
          "price_stat": {
            "avg": 1700000,
            "variance": 0,
            "min": 1700000,
            "max": 1700000
          },
          "scrape_url": "https://www.digikala.com/product/dkp-7994232",
          "is_available": true
        },
        "brand_info": {
          "brand_name": "pars peladis",
          "brand_name_fa": "پارس پلادیس"
        },
        "mall_info": {
          "mall_id": "67358d34fd1372fc4a6d61ac",
          "mall_name": "digikala",
          "mall_name_fa": "دیجی‌کالا"
        },
        "media_info": {
          "primary_image": "https://dkstatics-public.digikala.com/digikala-products/e5f69390b29d454e97ad765818d7a6ccd5edcfe8_1646295799.jpg?x-oss-process=image/resize,m_lfit,h_800,w_800/quality,q_90"
        }
      }
    ]
  }
}